\relax 
\newlabel{start}{{}{1}}
\@writefile{toc}{\contentsline {section}{\numberline {1}Problem 1:}{1}}
\@writefile{toc}{\contentsline {section}{\numberline {2}Problem 2:}{2}}
\@writefile{toc}{\contentsline {section}{\numberline {3}Problem 3:}{3}}
\@writefile{toc}{\contentsline {section}{\numberline {4}Problem 4:}{3}}
\@writefile{toc}{\contentsline {section}{\numberline {5}Problem 5}{4}}
\newlabel{end}{{5}{5}}
